{
  "type": "tab",
  "id": "82356925.a4da78",
  "label": "Flow 1",
  "flow": [
    {
      "id": "c7df4e60.846f6",
      "type": "http in",
      "z": "82356925.a4da78",
      "name": "Amit",
      "url": "/amit",
      "method": "get",
      "swaggerDoc": "",
      "x": 106,
      "y": 240,
      "wires": [
        [
          "d1c00ff1.88c52"
        ]
      ]
    },
    {
      "id": "d1c00ff1.88c52",
      "type": "function",
      "z": "82356925.a4da78",
      "name": "amit",
      "func": "msg.payload = 'amit tenerife';\nreturn msg;",
      "outputs": 1,
      "noerr": 0,
      "x": 276,
      "y": 252,
      "wires": [
        [
          "77d3a9a1.9d0a28"
        ]
      ]
    },
    {
      "id": "77d3a9a1.9d0a28",
      "type": "http response",
      "z": "82356925.a4da78",
      "name": "",
      "x": 473,
      "y": 243,
      "wires": []
    }
  ]
}